{"page":1,"per_page":6,"total":12,"total_pages":2,
"data":[{"id":1,"email":"george.bluth@reqres.in","first_name":"George","last_name":"Bluth","avatar":"apple.jpg","audio":"a.mp3"},
{"id":2,"email":"janet.weaver@reqres.in","first_name":"Janet","last_name":"Weaver","avatar":"noon-logo-en.svg","audio":"child.mp3"}
]}